Code-along 04
…
Each variable in its own column, and each observation in its own row.

my_data |>
  pivot_longer(
    cols = c(-yearid, -wtssnr_2),
    names_to = c("variable"),
    values_to = "value") |>
    separate_wider_delim(variable, 
                         delim = "_", 
                         names = c("variable", "panel")) |>
  pivot_wider(
    names_from = variable,
    values_from = value)

# A tibble: 15,645 × 7
     yearid wtssnr_2 panel age   family16                    socfrend     childs
      <dbl>    <dbl> <chr> <fct> <fct>                       <fct>        <fct> 
 1 20160001    1.44  1a    47    both own mother and father  several tim… 3     
 2 20160001    1.44  1b    <NA>  <NA>                        <NA>         <NA>  
 3 20160001    1.44  2     51    not available for this year several tim… 3     
 4 20160002    0.722 1a    61    both own mother and father  several tim… 0     
 5 20160002    0.722 1b    <NA>  <NA>                        <NA>         <NA>  
 6 20160002    0.722 2     65    not available for this year about once … 0     
 7 20160003   NA     1a    72    both own mother and father  <NA>         2     
 8 20160003   NA     1b    <NA>  <NA>                        <NA>         <NA>  
 9 20160003   NA     2     <NA>  iap                         <NA>         <NA>  
10 20160004    2.89  1a    43    mother only                 once or twi… 4     
# ℹ 15,635 more rows
…
head(my_data, n = 2)

# A tibble: 2 × 7
    yearid panel wtssnr_2 age   family16                   socfrend       childs
     <dbl> <dbl>    <dbl> <fct> <fct>                      <fct>          <fct> 
1 20160001  2016     1.44 47    both own mother and father several times… 3     
2 20160001  2018     1.44 <NA>  <NA>                       <NA>           <NA>  

arrange()

my_data |> 
  arrange(panel) |>
  select(yearid, panel, age, family16)

# A tibble: 15,645 × 4
     yearid panel age   family16                  
      <dbl> <dbl> <fct> <fct>                     
 1 20160001  2016 47    both own mother and father
 2 20160002  2016 61    both own mother and father
 3 20160003  2016 72    both own mother and father
 4 20160004  2016 43    mother only               
 5 20160005  2016 55    both own mother and father
 6 20160006  2016 53    other                     
 7 20160007  2016 50    both own mother and father
 8 20160008  2016 23    both own mother and father
 9 20160009  2016 45    both own mother and father
10 20160010  2016 71    both own mother and father
# ℹ 15,635 more rows

my_data |> 
  arrange(desc(panel)) |>
  select(yearid, panel, age, family16)

# A tibble: 15,645 × 4
     yearid panel age   family16                   
      <dbl> <dbl> <fct> <fct>                      
 1 20160001  2020 51    not available for this year
 2 20160002  2020 65    not available for this year
 3 20160003  2020 <NA>  iap                        
 4 20160004  2020 47    not available for this year
 5 20160005  2020 <NA>  iap                        
 6 20160006  2020 <NA>  iap                        
 7 20160007  2020 <NA>  iap                        
 8 20160008  2020 27    not available for this year
 9 20160009  2020 49    not available for this year
10 20160010  2020 <NA>  iap                        
# ℹ 15,635 more rows
…
Think Like a Statistician

Are married people above or below average in internet use or income? Does it vary by survey year?

Answering this research question takes a few steps. But, the first step is to create a dataframe with all the necessary information.

# TIP: It's often easier to play with your code in an R script first.
# Then, copy and past your working R code into this code-chunk.

# A tibble: 15,645 × 7
     yearid panel marital       wwwhr                 realrinc  avg_www avg_inc
      <dbl> <dbl> <fct>         <dbl+lbl>             <dbl+lbl>   <dbl>   <dbl>
 1 20160001  2016 married          15                 164382.      14.2  24929.
 2 20160001  2018 <NA>          NA(i)                  NA(i)       14.8  26103.
 3 20160001  2020 married          20                 147659.      15.0  28222.
 4 20160002  2016 never married     5 [never married]  25740       14.2  24929.
 5 20160002  2018 <NA>          NA(i)                  NA(i)       14.8  26103.
 6 20160002  2020 never married    10                  23980       15.0  28222.
 7 20160003  2016 married       NA(i)                  NA(i)       14.2  24929.
 8 20160003  2018 <NA>          NA(i)                  NA(i)       14.8  26103.
 9 20160003  2020 <NA>          NA(i)                  NA(i)       15.0  28222.
10 20160004  2016 married           7                   5265       14.2  24929.
# ℹ 15,635 more rows
…
